Webscraping Part 2: Obtaining Image Data from Digital Sources
…
year_released <- marvel_films %>%
  html_elements(".start-year") %>%
  html_text2() 

meter_score <- marvel_films %>%
  html_elements(".tMeterScore") %>%
  html_text2()

rotten_data <- tibble(movie_title, year_released, meter_score)

print(rotten_data)

# A tibble: 36 × 3
   movie_title                               year_released meter_score
   <chr>                                     <chr>         <chr>      
 1 Black Panther                             (2018)        96%        
 2 Avengers: Endgame                         (2019)        94%        
 3 Iron Man                                  (2008)        94%        
 4 Thor: Ragnarok                            (2017)        93%        
 5 Spider-Man: No Way Home                   (2021)        93%        
 6 Spider-Man: Homecoming                    (2017)        92%        
 7 Shang-Chi and the Legend of the Ten Rings (2021)        92%        
 8 Guardians of the Galaxy                   (2014)        92%        
 9 Spider-Man: Far From Home                 (2019)        91%        
10 Marvel's the Avengers                     (2012)        91%        
# ℹ 26 more rows
…
Show code

# CLEANING THE DATA

cleaned_data <- rotten_data %>%
  mutate(year_released = year_released %>% str_sub(1, 5) %>% parse_number()) %>%
    mutate(meter_score = meter_score %>% str_sub(1, 2) %>% parse_number()) %>%
 mutate(phase = ifelse(year_released > 2018,
                                "Post-Endgame",
                                "Pre-Endgame")) 

print(cleaned_data)

# A tibble: 36 × 4
   movie_title                         year_released meter_score phase
   <chr>                                       <dbl>       <dbl> <chr>
 1 Black Panther                                2018          96 Pre-…
 2 Avengers: Endgame                            2019          94 Post…
 3 Iron Man                                     2008          94 Pre-…
 4 Thor: Ragnarok                               2017          93 Pre-…
 5 Spider-Man: No Way Home                      2021          93 Post…
 6 Spider-Man: Homecoming                       2017          92 Pre-…
 7 Shang-Chi and the Legend of the Te…          2021          92 Post…
 8 Guardians of the Galaxy                      2014          92 Pre-…
 9 Spider-Man: Far From Home                    2019          91 Post…
10 Marvel's the Avengers                        2012          91 Pre-…
# ℹ 26 more rows
…
